Joker|http://fc00.deviantart.net/fs71/f/2012/208/f/a/joker_painting_by_scampicrevette-d58soyl.jpg
Batman|http://imageserver.moviepilot.com/batman-batman-vs-superman-vote-for-your-favorite-batman-costume-a2525f6d-50ea-4216-8e55-6d7fbd9f5d7e.jpeg?width=660&height=391
Robin|http://tf3dm.com/imgd/l88380-arkham-city-batman-robin-animated-series-20134.jpg
Bane|http://media.comicbook.com/wp-content/uploads/2012/07/rush-limbaugh-bane-controversy.jpg
Alfred|http://static.comicvine.com/uploads/original/6/64137/3567589-batman_tas_alfred.jpeg